quarto-inputbab89db5
…
For example, if I want the second column of the data frame “data”, I would write data[,2]

Note that the second column is the ability variable 

colnames(data)

 [1] "res_id"                 "ability"                "age"                   
 [4] "educyears"              "isfarmer"               "yearsfarming"          
 [7] "yearsmanagingfarm"      "outsidewage"            "worriedaboutcropprices"
[10] "worriedaboutcropyields"

data[,2]

# A tibble: 7,209 × 1
   ability
     <dbl>
 1      74
 2      42
 3      67
 4      54
 5      57
 6      72
 7      51
 8      65
 9      54
10      24
# ℹ 7,199 more rows
…
